^C:\USERS\RENATO\DESKTOP\NOS\LEMON-1.3.1\TEST\LGF_TEST.CC
C:\USERS\RENATO\DESKTOP\NOS\LEMON-1.3.1\BUILD\TEST\LGF_TEST.DIR\DEBUG\VC140.PDB
C:\USERS\RENATO\DESKTOP\NOS\LEMON-1.3.1\BUILD\TEST\LGF_TEST.DIR\DEBUG\LGF_TEST.OBJ
