^C:\USERS\RENATO\DESKTOP\NOS\LEMON-1.3.1\TEST\GRAPH_TEST.CC
C:\USERS\RENATO\DESKTOP\NOS\LEMON-1.3.1\BUILD\TEST\GRAPH_TEST.DIR\DEBUG\VC140.PDB
C:\USERS\RENATO\DESKTOP\NOS\LEMON-1.3.1\BUILD\TEST\GRAPH_TEST.DIR\DEBUG\GRAPH_TEST.OBJ
