^C:\USERS\RENATO\DESKTOP\NOS\LEMON-1.3.1\TEST\ARC_LOOK_UP_TEST.CC
C:\USERS\RENATO\DESKTOP\NOS\LEMON-1.3.1\BUILD\TEST\ARC_LOOK_UP_TEST.DIR\DEBUG\VC140.PDB
C:\USERS\RENATO\DESKTOP\NOS\LEMON-1.3.1\BUILD\TEST\ARC_LOOK_UP_TEST.DIR\DEBUG\ARC_LOOK_UP_TEST.OBJ
