^C:\USERS\RENATO\DESKTOP\NOS\LEMON-1.3.1\TEST\EULER_TEST.CC
C:\USERS\RENATO\DESKTOP\NOS\LEMON-1.3.1\BUILD\TEST\EULER_TEST.DIR\DEBUG\VC140.PDB
C:\USERS\RENATO\DESKTOP\NOS\LEMON-1.3.1\BUILD\TEST\EULER_TEST.DIR\DEBUG\EULER_TEST.OBJ
