^C:\USERS\RENATO\DESKTOP\NOS\LEMON-1.3.1\TEST\CIRCULATION_TEST.CC
C:\USERS\RENATO\DESKTOP\NOS\LEMON-1.3.1\BUILD\TEST\CIRCULATION_TEST.DIR\DEBUG\VC140.PDB
C:\USERS\RENATO\DESKTOP\NOS\LEMON-1.3.1\BUILD\TEST\CIRCULATION_TEST.DIR\DEBUG\CIRCULATION_TEST.OBJ
