^C:\USERS\RENATO\DESKTOP\NOS\LEMON-1.3.1\TOOLS\DIMACS-SOLVER.CC
C:\USERS\RENATO\DESKTOP\NOS\LEMON-1.3.1\BUILD\TOOLS\DIMACS-SOLVER.DIR\DEBUG\VC140.PDB
C:\USERS\RENATO\DESKTOP\NOS\LEMON-1.3.1\BUILD\TOOLS\DIMACS-SOLVER.DIR\DEBUG\DIMACS-SOLVER.OBJ
